0,1
1,2
2,0
3,1
4,2
5,0
6,1
7,0
8,0
9,2
10,2
11,0
12,0
13,0
14,2
15,0
16,0
17,2
18,1
19,0
20,1
21,1
22,1
23,1
24,2
25,2
26,0
27,2
28,2
29,0
30,1
31,2
32,2
33,0
34,0
35,2
36,0
37,0
38,0
39,0
40,0
41,0
42,2
43,0
44,0
45,0
46,0
47,1
48,0
49,2
50,1
51,1
52,2
53,0
54,1
55,2
56,2
57,0
58,0
59,0
60,0
61,1
62,2
63,2
64,1
65,0
66,1
67,2
68,2
69,0
70,2
71,1
72,2
73,0
74,2
75,1
76,0
77,0
78,2
79,2
80,2
81,0
82,0
83,0
84,0
85,0
86,2
87,2
88,1
89,0
90,2
91,2
92,0
93,0
94,2
95,2
96,2
97,0
98,2
99,2
100,2
101,2
102,1
103,2
104,0
105,0
106,0
107,2
108,0
109,0
110,0
111,0
112,2
113,0
114,0
115,2
116,1
117,1
118,2
119,1
120,1
121,0
122,0
123,0
124,0
125,2
126,0
127,0
128,0
129,2
130,1
131,1
132,2
133,0
134,0
135,0
136,0
137,2
138,1
139,2
140,0
141,2
142,2
143,0
144,2
145,2
146,2
147,2
148,2
149,2
150,0
151,0
152,2
153,2
154,2
155,1
156,2
157,2
158,2
159,2
160,2
161,1
162,2
163,1
164,2
165,2
166,2
167,2
168,2
169,2
170,2
171,2
172,2
173,1
174,2
175,1
176,2
177,2
178,1
179,2
180,2
181,2
182,1
183,2
184,2
185,2
186,2
187,2
188,2
189,2
190,2
191,2
192,1
193,2
194,2
195,2
196,2
197,2
198,2
199,2
200,2
201,2
202,2
203,2
204,2
205,2
206,2
207,2
208,2
209,2
210,2
211,2
212,2
213,2
214,1
215,2
216,2
217,2
218,2
219,2
220,2
221,2
222,1
223,2
224,2
225,2
226,2
227,2
228,2
229,1
230,2
231,2
232,2
233,2
234,2
235,2
236,2
237,2
