0,1
1,1
2,1
3,0
4,0
5,0
6,1
7,0
8,0
9,2
10,0
11,1
12,1
13,2
14,2
15,1
16,0
17,0
18,0
19,0
20,0
21,0
22,0
23,0
24,0
25,0
26,0
27,1
28,0
29,0
30,1
31,0
32,1
33,2
34,0
35,1
36,0
37,0
38,0
39,0
40,1
41,2
42,0
43,1
44,0
45,0
46,2
47,2
48,2
49,0
50,0
51,0
52,2
53,2
54,0
55,0
56,0
57,0
58,0
59,1
60,0
61,0
62,0
63,0
64,0
65,0
66,0
67,1
68,1
69,0
70,0
71,1
72,1
73,0
74,2
75,1
76,0
77,0
78,2
79,1
80,0
81,2
82,1
83,1
84,2
85,1
86,0
87,2
88,1
89,0
90,1
91,1
92,0
93,0
94,1
95,0
96,0
97,0
98,0
99,1
100,0
101,0
102,0
103,0
104,0
105,0
106,0
107,0
108,0
109,2
110,1
111,0
112,0
113,0
114,0
115,1
116,0
117,2
118,0
119,1
120,1
121,0
122,0
123,2
124,1
125,0
126,2
127,2
128,2
129,0
130,1
131,0
132,2
133,2
134,2
135,0
136,1
137,0
138,2
139,0
140,0
141,1
142,0
143,0
144,2
145,0
146,2
147,0
148,2
149,2
150,0
151,0
152,0
153,1
154,1
155,0
156,0
157,0
158,1
159,1
160,0
161,0
162,0
163,0
164,2
165,1
166,2
167,0
168,1
169,0
170,0
171,1
172,0
173,1
174,0
175,0
176,0
177,0
178,2
179,1
180,2
181,1
182,1
183,2
184,1
185,2
186,2
187,2
188,1
189,1
190,0
191,0
192,2
193,0
194,2
195,1
196,0
197,0
198,0
199,0
200,0
201,1
202,2
203,2
204,1
205,0
206,0
207,2
208,0
209,1
210,0
211,0
212,2
213,0
214,0
215,1
216,2
217,0
218,1
219,2
220,0
221,0
222,0
223,0
224,2
225,0
226,0
227,2
228,2
229,0
230,2
231,0
232,0
233,2
234,2
235,0
236,1
237,1
238,1
239,1
240,0
241,0
242,0
243,2
244,1
245,2
246,2
247,0
248,0
249,1
250,1
251,2
252,0
