0,0
1,0
2,0
3,0
4,2
5,2
6,0
7,0
8,0
9,0
10,0
11,2
12,0
13,0
14,0
15,0
16,0
17,1
18,0
19,0
20,0
21,0
22,0
23,2
24,2
25,2
26,0
27,2
28,0
29,2
30,0
31,0
32,2
33,0
34,0
35,2
36,0
37,1
38,0
39,0
40,2
41,2
42,2
43,0
44,0
45,0
46,0
47,0
48,0
49,0
50,0
51,0
52,0
53,0
54,0
55,1
56,1
57,0
58,0
59,0
60,0
61,0
62,2
63,0
64,0
65,1
66,0
67,2
68,2
69,1
70,2
71,2
72,2
73,0
74,1
75,2
76,0
77,1
78,1
79,2
80,0
81,0
82,0
83,0
84,1
85,1
86,1
87,0
88,0
89,0
90,2
91,1
92,2
93,2
94,0
95,0
96,2
97,2
98,0
99,0
100,1
101,2
102,0
103,2
104,2
105,1
106,1
107,1
108,0
109,2
110,0
111,1
112,2
113,1
114,2
115,2
116,2
117,2
118,2
119,1
120,2
121,2
122,2
123,1
124,2
125,0
126,0
127,0
128,0
129,2
130,2
131,2
132,0
133,0
134,0
135,2
136,0
137,2
138,2
139,2
140,2
141,2
142,0
143,1
144,2
145,2
146,2
147,2
148,2
149,2
150,2
151,2
152,0
153,2
154,0
155,2
156,0
157,2
158,2
159,2
160,2
161,0
162,2
163,0
164,2
165,2
166,0
167,1
168,0
169,2
170,1
171,1
172,2
173,2
174,2
175,2
176,2
177,2
178,2
179,1
180,1
181,0
182,2
183,2
184,0
185,2
186,1
187,0
188,0
189,0
190,2
191,2
192,2
193,1
194,2
195,2
196,2
197,2
198,2
199,2
200,2
201,2
202,2
203,2
204,0
205,2
206,2
207,0
208,1
209,1
210,2
211,2
212,0
213,1
214,1
215,0
216,2
217,1
218,1
219,2
220,0
221,1
222,1
223,2
224,1
225,1
226,1
227,0
228,2
229,1
230,1
231,2
232,1
233,1
234,1
235,2
236,2
237,2
238,2
239,2
240,2
241,2
242,2
243,0
244,2
245,1
246,2
247,0
248,0
249,2
250,2
251,2
252,2
